\relax 
\@writefile{toc}{\contentsline {section}{\numberline {1}Verification 1}{1}\protected@file@percent }
\newlabel{Equations}{{1}{1}}
\@writefile{toc}{\contentsline {section}{\numberline {2}Figures}{1}\protected@file@percent }
\@writefile{lof}{\contentsline {figure}{\numberline {1}{\ignorespaces Temperature profile.}}{1}\protected@file@percent }
\@writefile{lof}{\contentsline {figure}{\numberline {2}{\ignorespaces Profile of molar flow rates $F_A$, $F_B$, and $F_C$.}}{2}\protected@file@percent }
